1. Summary
Meeting title	DB
Attended participants	9
Start time	10/11/22, 8:28:32 AM
End time	10/11/22, 10:14:41 AM
Meeting duration	1h 46m 10s
Average attendance time	1h 42m 8s

2. Participants
Name	First join	Last leave	In-meeting duration	Email	Participant ID (UPN)	Role
Diego Jauregui Salvatierra	10/11/22, 8:28:39 AM	10/11/22, 10:14:28 AM	1h 45m 48s	Diego.Jauregui@jala.university	Diego.Jauregui@jala.university	Presenter
Jesus Vallecilla Solano	10/11/22, 8:29:28 AM	10/11/22, 10:14:31 AM	1h 45m 3s	Jesus.Vallecilla@jala.university	Jesus.Vallecilla@jala.university	Presenter
Sergio Mallea Morales	10/11/22, 8:29:37 AM	10/11/22, 10:14:29 AM	1h 44m 52s	Sergio.Mallea@jala.university	Sergio.Mallea@jala.university	Presenter
Maria Marquina Guevara	10/11/22, 8:30:54 AM	10/11/22, 10:14:27 AM	1h 43m 32s	Maria.Marquina@jala.university	Maria.Marquina@jala.university	Organizer
Andres Galvis Bolivar	10/11/22, 8:31:22 AM	10/11/22, 10:14:28 AM	1h 43m 5s	Andres.Galvis@jala.university	Andres.Galvis@jala.university	Presenter
Adrian Clavijo Lopez	10/11/22, 8:31:41 AM	10/11/22, 10:14:29 AM	1h 42m 48s	Adrian.Clavijo@jala.university	Adrian.Clavijo@jala.university	Presenter
Jason Pineda Serna	10/11/22, 8:32:25 AM	10/11/22, 10:14:41 AM	1h 42m 16s	Jason.Pineda@jala.university	Jason.Pineda@jala.university	Presenter
Camilo Villalba Sanz	10/11/22, 8:34:41 AM	10/11/22, 10:14:29 AM	1h 39m 47s	Camilo.Villalba@jala.university	Camilo.Villalba@jala.university	Presenter
Martin Ferreyra	10/11/22, 8:42:28 AM	10/11/22, 10:14:28 AM	1h 32m	Martin.Ferreyra@jala.university	Martin.Ferreyra@jala.university	Presenter

3. In-Meeting activities
Name	Join time	Leave time	Duration	Email	Role
Diego Jauregui Salvatierra	10/11/22, 8:28:39 AM	10/11/22, 10:14:28 AM	1h 45m 48s	Diego.Jauregui@jala.university	Presenter
Jesus Vallecilla Solano	10/11/22, 8:29:28 AM	10/11/22, 10:14:31 AM	1h 45m 3s	Jesus.Vallecilla@jala.university	Presenter
Sergio Mallea Morales	10/11/22, 8:29:37 AM	10/11/22, 10:14:29 AM	1h 44m 52s	Sergio.Mallea@jala.university	Presenter
Maria Marquina Guevara	10/11/22, 8:30:54 AM	10/11/22, 10:14:27 AM	1h 43m 32s	Maria.Marquina@jala.university	Organizer
Andres Galvis Bolivar	10/11/22, 8:31:22 AM	10/11/22, 10:14:28 AM	1h 43m 5s	Andres.Galvis@jala.university	Presenter
Adrian Clavijo Lopez	10/11/22, 8:31:41 AM	10/11/22, 10:14:29 AM	1h 42m 48s	Adrian.Clavijo@jala.university	Presenter
Jason Pineda Serna	10/11/22, 8:32:25 AM	10/11/22, 10:14:41 AM	1h 42m 16s	Jason.Pineda@jala.university	Presenter
Camilo Villalba Sanz	10/11/22, 8:34:41 AM	10/11/22, 10:14:29 AM	1h 39m 47s	Camilo.Villalba@jala.university	Presenter
Martin Ferreyra	10/11/22, 8:42:28 AM	10/11/22, 10:14:28 AM	1h 32m	Martin.Ferreyra@jala.university	Presenter
